CPU/InstructionDecoder/InstructionDecoder.vcd
$date
	Thu Apr 25 10:30:47 2024
$end
$version
	Icarus Verilog
$end
$timescale
	100ns
$end
$scope module tb $end
$var wire 4 ! srcA [3:0] $end
$var wire 4 " dstA [3:0] $end
$var wire 1 # OneOp $end
$var wire 16 $ FS [15:0] $end
$var wire 16 % BranchOffset [15:0] $end
$var wire 1 & BW $end
$var wire 2 ' As [1:0] $end
$var wire 1 ( Ad $end
$var reg 16 ) Instruction [15:0] $end
$scope module uut $end
$var wire 16 * Instruction [15:0] $end
$var parameter 2 + ABSOLUTE_MODE $end
$var parameter 16 , ADD $end
$var parameter 16 - ADDB $end
$var parameter 16 . ADDC $end
$var parameter 16 / ADDCB $end
$var parameter 16 0 AND $end
$var parameter 16 1 ANDB $end
$var parameter 16 2 BIC $end
$var parameter 16 3 BICB $end
$var parameter 16 4 BIS $end
$var parameter 16 5 BISB $end
$var parameter 16 6 BIT $end
$var parameter 16 7 BITB $end
$var parameter 32 8 BITC $end
$var parameter 32 9 BITN $end
$var parameter 32 : BITV $end
$var parameter 32 ; BITZ $end
$var parameter 16 < CALL $end
$var parameter 4 = CG1 $end
$var parameter 4 > CG2 $end
$var parameter 16 ? CMP $end
$var parameter 16 @ CMPB $end
$var parameter 16 A DADD $end
$var parameter 16 B DADDB $end
$var parameter 32 C GIE $end
$var parameter 2 D IMMEDIATE_MODE $end
$var parameter 2 E INDEXED_MODE $end
$var parameter 2 F INDIRECT_AUTOINCREMENT_MODE $end
$var parameter 2 G INDIRECT_MODE $end
$var parameter 16 H JC $end
$var parameter 16 I JEQ $end
$var parameter 16 J JGE $end
$var parameter 16 K JL $end
$var parameter 16 L JMP $end
$var parameter 16 M JN $end
$var parameter 16 N JNC $end
$var parameter 16 O JNE $end
$var parameter 16 P JNZ $end
$var parameter 16 Q JZ $end
$var parameter 16 R MOV $end
$var parameter 16 S MOVB $end
$var parameter 4 T PC $end
$var parameter 16 U PUSH $end
$var parameter 16 V PUSHB $end
$var parameter 4 W R0 $end
$var parameter 4 X R1 $end
$var parameter 4 Y R10 $end
$var parameter 4 Z R11 $end
$var parameter 4 [ R12 $end
$var parameter 4 \ R13 $end
$var parameter 4 ] R14 $end
$var parameter 4 ^ R15 $end
$var parameter 4 _ R2 $end
$var parameter 4 ` R3 $end
$var parameter 4 a R4 $end
$var parameter 4 b R5 $end
$var parameter 4 c R6 $end
$var parameter 4 d R7 $end
$var parameter 4 e R8 $end
$var parameter 4 f R9 $end
$var parameter 2 g REGISTER_MODE $end
$var parameter 16 h RETI $end
$var parameter 16 i RRA $end
$var parameter 16 j RRAB $end
$var parameter 16 k RRC $end
$var parameter 16 l RRCB $end
$var parameter 4 m SP $end
$var parameter 4 n SR $end
$var parameter 16 o SUB $end
$var parameter 16 p SUBB $end
$var parameter 16 q SUBC $end
$var parameter 16 r SUBCB $end
$var parameter 16 s SWPB $end
$var parameter 16 t SXT $end
$var parameter 2 u SYMBOLIC_MODE $end
$var parameter 16 v XOR $end
$var parameter 16 w XORB $end
$var reg 1 ( Ad $end
$var reg 2 x As [1:0] $end
$var reg 1 & BW $end
$var reg 16 y BranchOffset [15:0] $end
$var reg 16 z FS [15:0] $end
$var reg 1 # OneOp $end
$var reg 4 { dstA [3:0] $end
$var reg 4 | srcA [3:0] $end
$upscope $end
$upscope $end
$enddefinitions $end
$comment Show the parameter values. $end
$dumpall
b1110000001000000 w
b1110000000000000 v
b1 u
b1000110000000 t
b1000010000000 s
b111000001000000 r
b111000000000000 q
b1000000001000000 p
b1000000000000000 o
b10 n
b1 m
b1000001000000 l
b1000000000000 k
b1000101000000 j
b1000100000000 i
b1001100000000 h
b0 g
b1001 f
b1000 e
b111 d
b110 c
b101 b
b100 a
b11 `
b10 _
b1111 ^
b1110 ]
b1101 \
b1100 [
b1011 Z
b1010 Y
b1 X
b0 W
b1001001000000 V
b1001000000000 U
b0 T
b100000001000000 S
b100000000000000 R
b10010000000000 Q
b10000000000000 P
b10000000000000 O
b10100000000000 N
b11000000000000 M
b11110000000000 L
b11100000000000 K
b11010000000000 J
b10010000000000 I
b10110000000000 H
b10 G
b11 F
b1 E
b11 D
b11 C
b1010000001000000 B
b1010000000000000 A
b1001000001000000 @
b1001000000000000 ?
b11 >
b10 =
b1001010000000 <
b1 ;
b1000 :
b10 9
b0 8
b1011000001000000 7
b1011000000000000 6
b1101000001000000 5
b1101000000000000 4
b1100000001000000 3
b1100000000000000 2
b1111000001000000 1
b1111000000000000 0
b110000001000000 /
b110000000000000 .
b101000001000000 -
b101000000000000 ,
b1 +
$end
#0
$dumpvars
b0 |
b100 {
b1000000000000 z
b0 y
b0 x
b1000000000100 *
b1000000000100 )
0(
b0 '
0&
b0 %
b1000000000000 $
1#
b100 "
b0 !
$end
#10
b10 '
b10 x
b101 "
b101 {
1#
b1000000100101 )
b1000000100101 *
#20
b110 "
b110 {
b11 '
b11 x
1#
b1000000110110 )
b1000000110110 *
#30
b111 "
b111 {
b1 '
b1 x
1#
b1000000010111 )
b1000000010111 *
#40
1&
b1000001000000 $
b1000001000000 z
b100 "
b100 {
b0 '
b0 x
1#
b1000001000100 )
b1000001000100 *
#50
b10 '
b10 x
b101 "
b101 {
1&
1#
b1000001100101 )
b1000001100101 *
#60
b110 "
b110 {
b11 '
b11 x
1&
1#
b1000001110110 )
b1000001110110 *
#70
b111 "
b111 {
b1 '
b1 x
1&
1#
b1000001010111 )
b1000001010111 *
#80
b1000010000000 $
b1000010000000 z
b1000 "
b1000 {
b0 '
b0 x
0&
1#
b1000010001000 )
b1000010001000 *
#90
b10 '
b10 x
b1001 "
b1001 {
1#
b1000010101001 )
b1000010101001 *
#100
b1010 "
b1010 {
b11 '
b11 x
1#
b1000010111010 )
b1000010111010 *
#110
b1011 "
b1011 {
b1 '
b1 x
1#
b1000010011011 )
b1000010011011 *
#120
b1000100000000 $
b1000100000000 z
b1100 "
b1100 {
b0 '
b0 x
1#
b1000100001100 )
b1000100001100 *
#130
b10 '
b10 x
b1101 "
b1101 {
1#
b1000100101101 )
b1000100101101 *
#140
b1110 "
b1110 {
b11 '
b11 x
1#
b1000100111110 )
b1000100111110 *
#150
b1111 "
b1111 {
b1 '
b1 x
1#
b1000100011111 )
b1000100011111 *
#160
1&
b1000101000000 $
b1000101000000 z
b1100 "
b1100 {
b0 '
b0 x
1#
b1000101001100 )
b1000101001100 *
#170
b10 '
b10 x
b1101 "
b1101 {
1&
1#
b1000101101101 )
b1000101101101 *
#180
b1110 "
b1110 {
b11 '
b11 x
1&
1#
b1000101111110 )
b1000101111110 *
#190
b1111 "
b1111 {
b1 '
b1 x
1&
1#
b1000101011111 )
b1000101011111 *
#200
b1000110000000 $
b1000110000000 z
b100 "
b100 {
b0 '
b0 x
0&
1#
b1000110000100 )
b1000110000100 *
#210
b10 '
b10 x
b110 "
b110 {
1#
b1000110100110 )
b1000110100110 *
#220
b1000 "
b1000 {
b11 '
b11 x
1#
b1000110111000 )
b1000110111000 *
#230
b1000 "
b1000 {
b1 '
b1 x
1#
b1000110011000 )
b1000110011000 *
#240
b1001000000000 $
b1001000000000 z
b101 "
b101 {
b0 '
b0 x
1#
b1001000000101 )
b1001000000101 *
#250
b10 '
b10 x
b110 "
b110 {
1#
b1001000100110 )
b1001000100110 *
#260
b111 "
b111 {
b11 '
b11 x
1#
b1001000110111 )
b1001000110111 *
#270
b0 "
b0 {
b11 '
b11 x
1#
b1001000110000 )
b1001000110000 *
#280
b1011 "
b1011 {
b1 '
b1 x
1#
b1001000011011 )
b1001000011011 *
#290
1&
b1001001000000 $
b1001001000000 z
b101 "
b101 {
b0 '
b0 x
1#
b1001001000101 )
b1001001000101 *
#300
b10 '
b10 x
b110 "
b110 {
1&
1#
b1001001100110 )
b1001001100110 *
#310
b111 "
b111 {
b11 '
b11 x
1&
1#
b1001001110111 )
b1001001110111 *
#320
b0 "
b0 {
b11 '
b11 x
1&
1#
b1001001110000 )
b1001001110000 *
#330
b1011 "
b1011 {
b1 '
b1 x
1&
1#
b1001001011011 )
b1001001011011 *
#340
b1001010000000 $
b1001010000000 z
b100 "
b100 {
b0 '
b0 x
0&
1#
b1001010000100 )
b1001010000100 *
#350
b10 '
b10 x
b101 "
b101 {
1#
b1001010100101 )
b1001010100101 *
#360
b110 "
b110 {
b11 '
b11 x
1#
b1001010110110 )
b1001010110110 *
#370
b0 "
b0 {
b11 '
b11 x
1#
b1001010110000 )
b1001010110000 *
#380
b111 "
b111 {
b1 '
b1 x
1#
b1001010010111 )
b1001010010111 *
#390
b1 !
b1 |
b1001100000000 $
b1001100000000 z
b0 "
b0 {
b11 '
b11 x
0#
b1001100000000 )
b1001100000000 *
#400
b10010 %
b10010 y
b10000000000000 $
b10000000000000 z
b0 !
b0 |
b0 '
b0 x
b10000000001001 )
b10000000001001 *
#410
b10000 %
b10000 y
b10000000001000 )
b10000000001000 *
#420
b10010000000000 $
b10010000000000 z
b1110 %
b1110 y
b10010000000111 )
b10010000000111 *
#430
b1100 %
b1100 y
b10010000000110 )
b10010000000110 *
#440
b10100000000000 $
b10100000000000 z
b1010 %
b1010 y
b10100000000101 )
b10100000000101 *
#450
b10110000000000 $
b10110000000000 z
b1000 %
b1000 y
b10110000000100 )
b10110000000100 *
#460
b11000000000000 $
b11000000000000 z
b1111111111110010 %
b1111111111110010 y
b11001111111001 )
b11001111111001 *
#470
b11010000000000 $
b11010000000000 z
b1111111111110000 %
b1111111111110000 y
b11011111111000 )
b11011111111000 *
#480
b11100000000000 $
b11100000000000 z
b1111111111101110 %
b1111111111101110 y
b11101111110111 )
b11101111110111 *
#490
b11110000000000 $
b11110000000000 z
b1111111111101100 %
b1111111111101100 y
b11111111110110 )
b11111111110110 *
#500
b111 "
b111 {
b100 !
b100 |
b100000000000000 $
b100000000000000 z
b0 %
b0 y
b100010000000111 )
b100010000000111 *
#510
1(
b101 !
b101 |
b1000 "
b1000 {
b100010110001000 )
b100010110001000 *
#520
b10 '
b10 x
b110 !
b110 |
b1001 "
b1001 {
0(
b100011000101001 )
b100011000101001 *
#530
1(
b111 !
b111 |
b1010 "
b1010 {
b10 '
b10 x
b100011110101010 )
b100011110101010 *
#540
b1000 !
b1000 |
b1011 "
b1011 {
b11 '
b11 x
0(
b100100000111011 )
b100100000111011 *
#550
1(
b1001 !
b1001 |
b1100 "
b1100 {
b11 '
b11 x
b100100110111100 )
b100100110111100 *
#560
b0 !
b0 |
b1101 "
b1101 {
b11 '
b11 x
0(
b100000000111101 )
b100000000111101 *
#570
b1010 !
b1010 |
b1110 "
b1110 {
b1 '
b1 x
b100101000011110 )
b100101000011110 *
#580
1(
b1011 !
b1011 |
b1111 "
b1111 {
b1 '
b1 x
b100101110011111 )
b100101110011111 *
#590
1&
b100000001000000 $
b100000001000000 z
b1000 !
b1000 |
b101 "
b101 {
b0 '
b0 x
0(
b100100001000101 )
b100100001000101 *
#600
1(
b1001 !
b1001 |
b110 "
b110 {
1&
b100100111000110 )
b100100111000110 *
#610
b10 '
b10 x
b1010 !
b1010 |
b111 "
b111 {
0(
1&
b100101001100111 )
b100101001100111 *
#620
1(
b1011 !
b1011 |
b1000 "
b1000 {
b10 '
b10 x
1&
b100101111101000 )
b100101111101000 *
#630
b1100 !
b1100 |
b1001 "
b1001 {
b11 '
b11 x
0(
1&
b100110001111001 )
b100110001111001 *
#640
1(
b1101 !
b1101 |
b1010 "
b1010 {
b11 '
b11 x
1&
b100110111111010 )
b100110111111010 *
#650
b0 !
b0 |
b1011 "
b1011 {
b11 '
b11 x
0(
1&
b100000001111011 )
b100000001111011 *
#660
b1110 !
b1110 |
b1100 "
b1100 {
b1 '
b1 x
1&
b100111001011100 )
b100111001011100 *
#670
1(
b1111 !
b1111 |
b1101 "
b1101 {
b1 '
b1 x
1&
b100111111011101 )
b100111111011101 *
#680
b101000000000000 $
b101000000000000 z
b100 !
b100 |
b111 "
b111 {
b0 '
b0 x
0(
0&
b101010000000111 )
b101010000000111 *
#690
1(
b101 !
b101 |
b1000 "
b1000 {
b101010110001000 )
b101010110001000 *
#700
b10 '
b10 x
b110 !
b110 |
b1001 "
b1001 {
0(
b101011000101001 )
b101011000101001 *
#710
1(
b111 !
b111 |
b1010 "
b1010 {
b10 '
b10 x
b101011110101010 )
b101011110101010 *
#720
b1000 !
b1000 |
b1011 "
b1011 {
b11 '
b11 x
0(
b101100000111011 )
b101100000111011 *
#730
1(
b1001 !
b1001 |
b1100 "
b1100 {
b11 '
b11 x
b101100110111100 )
b101100110111100 *
#740
b0 !
b0 |
b1101 "
b1101 {
b11 '
b11 x
0(
b101000000111101 )
b101000000111101 *
#750
b1010 !
b1010 |
b1110 "
b1110 {
b1 '
b1 x
b101101000011110 )
b101101000011110 *
#760
1(
b1011 !
b1011 |
b1111 "
b1111 {
b1 '
b1 x
b101101110011111 )
b101101110011111 *
#770
1&
b101000001000000 $
b101000001000000 z
b1000 !
b1000 |
b101 "
b101 {
b0 '
b0 x
0(
b101100001000101 )
b101100001000101 *
#780
1(
b1001 !
b1001 |
b110 "
b110 {
1&
b101100111000110 )
b101100111000110 *
#790
b10 '
b10 x
b1010 !
b1010 |
b111 "
b111 {
0(
1&
b101101001100111 )
b101101001100111 *
#800
1(
b1011 !
b1011 |
b1000 "
b1000 {
b10 '
b10 x
1&
b101101111101000 )
b101101111101000 *
#810
b1100 !
b1100 |
b1001 "
b1001 {
b11 '
b11 x
0(
1&
b101110001111001 )
b101110001111001 *
#820
1(
b1101 !
b1101 |
b1010 "
b1010 {
b11 '
b11 x
1&
b101110111111010 )
b101110111111010 *
#830
b0 !
b0 |
b1011 "
b1011 {
b11 '
b11 x
0(
1&
b101000001111011 )
b101000001111011 *
#840
b1110 !
b1110 |
b1100 "
b1100 {
b1 '
b1 x
1&
b101111001011100 )
b101111001011100 *
#850
1(
b1111 !
b1111 |
b1101 "
b1101 {
b1 '
b1 x
1&
b101111111011101 )
b101111111011101 *
#860
b110000000000000 $
b110000000000000 z
b100 !
b100 |
b111 "
b111 {
b0 '
b0 x
0(
0&
b110010000000111 )
b110010000000111 *
#870
1(
b101 !
b101 |
b1000 "
b1000 {
b110010110001000 )
b110010110001000 *
#880
b10 '
b10 x
b110 !
b110 |
b1001 "
b1001 {
0(
b110011000101001 )
b110011000101001 *
#890
1(
b111 !
b111 |
b1010 "
b1010 {
b10 '
b10 x
b110011110101010 )
b110011110101010 *
#900
b1000 !
b1000 |
b1011 "
b1011 {
b11 '
b11 x
0(
b110100000111011 )
b110100000111011 *
#910
1(
b1001 !
b1001 |
b1100 "
b1100 {
b11 '
b11 x
b110100110111100 )
b110100110111100 *
#920
b0 !
b0 |
b1101 "
b1101 {
b11 '
b11 x
0(
b110000000111101 )
b110000000111101 *
#930
b1010 !
b1010 |
b1110 "
b1110 {
b1 '
b1 x
b110101000011110 )
b110101000011110 *
#940
1(
b1011 !
b1011 |
b1111 "
b1111 {
b1 '
b1 x
b110101110011111 )
b110101110011111 *
#950
1&
b110000001000000 $
b110000001000000 z
b1000 !
b1000 |
b101 "
b101 {
b0 '
b0 x
0(
b110100001000101 )
b110100001000101 *
#960
1(
b1001 !
b1001 |
b110 "
b110 {
1&
b110100111000110 )
b110100111000110 *
#970
b10 '
b10 x
b1010 !
b1010 |
b111 "
b111 {
0(
1&
b110101001100111 )
b110101001100111 *
#980
1(
b1011 !
b1011 |
b1000 "
b1000 {
b10 '
b10 x
1&
b110101111101000 )
b110101111101000 *
#990
b1100 !
b1100 |
b1001 "
b1001 {
b11 '
b11 x
0(
1&
b110110001111001 )
b110110001111001 *
#1000
1(
b1101 !
b1101 |
b1010 "
b1010 {
b11 '
b11 x
1&
b110110111111010 )
b110110111111010 *
#1010
b0 !
b0 |
b1011 "
b1011 {
b11 '
b11 x
0(
1&
b110000001111011 )
b110000001111011 *
#1020
b1110 !
b1110 |
b1100 "
b1100 {
b1 '
b1 x
1&
b110111001011100 )
b110111001011100 *
#1030
1(
b1111 !
b1111 |
b1101 "
b1101 {
b1 '
b1 x
1&
b110111111011101 )
b110111111011101 *
#1040
b111000000000000 $
b111000000000000 z
b100 !
b100 |
b111 "
b111 {
b0 '
b0 x
0(
0&
b111010000000111 )
b111010000000111 *
#1050
1(
b101 !
b101 |
b1000 "
b1000 {
b111010110001000 )
b111010110001000 *
#1060
b10 '
b10 x
b110 !
b110 |
b1001 "
b1001 {
0(
b111011000101001 )
b111011000101001 *
#1070
1(
b111 !
b111 |
b1010 "
b1010 {
b10 '
b10 x
b111011110101010 )
b111011110101010 *
#1080
b1000 !
b1000 |
b1011 "
b1011 {
b11 '
b11 x
0(
b111100000111011 )
b111100000111011 *
#1090
1(
b1001 !
b1001 |
b1100 "
b1100 {
b11 '
b11 x
b111100110111100 )
b111100110111100 *
#1100
b0 !
b0 |
b1101 "
b1101 {
b11 '
b11 x
0(
b111000000111101 )
b111000000111101 *
#1110
b1010 !
b1010 |
b1110 "
b1110 {
b1 '
b1 x
b111101000011110 )
b111101000011110 *
#1120
1(
b1011 !
b1011 |
b1111 "
b1111 {
b1 '
b1 x
b111101110011111 )
b111101110011111 *
#1130
1&
b111000001000000 $
b111000001000000 z
b1000 !
b1000 |
b101 "
b101 {
b0 '
b0 x
0(
b111100001000101 )
b111100001000101 *
#1140
1(
b1001 !
b1001 |
b110 "
b110 {
1&
b111100111000110 )
b111100111000110 *
#1150
b10 '
b10 x
b1010 !
b1010 |
b111 "
b111 {
0(
1&
b111101001100111 )
b111101001100111 *
#1160
1(
b1011 !
b1011 |
b1000 "
b1000 {
b10 '
b10 x
1&
b111101111101000 )
b111101111101000 *
#1170
b1100 !
b1100 |
b1001 "
b1001 {
b11 '
b11 x
0(
1&
b111110001111001 )
b111110001111001 *
#1180
1(
b1101 !
b1101 |
b1010 "
b1010 {
b11 '
b11 x
1&
b111110111111010 )
b111110111111010 *
#1190
b0 !
b0 |
b1011 "
b1011 {
b11 '
b11 x
0(
1&
b111000001111011 )
b111000001111011 *
#1200
b1110 !
b1110 |
b1100 "
b1100 {
b1 '
b1 x
1&
b111111001011100 )
b111111001011100 *
#1210
1(
b1111 !
b1111 |
b1101 "
b1101 {
b1 '
b1 x
1&
b111111111011101 )
b111111111011101 *
#1220
b1000000000000000 $
b1000000000000000 z
b100 !
b100 |
b111 "
b111 {
b0 '
b0 x
0(
0&
b1000010000000111 )
b1000010000000111 *
#1230
1(
b101 !
b101 |
b1000 "
b1000 {
b1000010110001000 )
b1000010110001000 *
#1240
b10 '
b10 x
b110 !
b110 |
b1001 "
b1001 {
0(
b1000011000101001 )
b1000011000101001 *
#1250
1(
b111 !
b111 |
b1010 "
b1010 {
b10 '
b10 x
b1000011110101010 )
b1000011110101010 *
#1260
b1000 !
b1000 |
b1011 "
b1011 {
b11 '
b11 x
0(
b1000100000111011 )
b1000100000111011 *
#1270
1(
b1001 !
b1001 |
b1100 "
b1100 {
b11 '
b11 x
b1000100110111100 )
b1000100110111100 *
#1280
b0 !
b0 |
b1101 "
b1101 {
b11 '
b11 x
0(
b1000000000111101 )
b1000000000111101 *
#1290
b1010 !
b1010 |
b1110 "
b1110 {
b1 '
b1 x
b1000101000011110 )
b1000101000011110 *
#1300
1(
b1011 !
b1011 |
b1111 "
b1111 {
b1 '
b1 x
b1000101110011111 )
b1000101110011111 *
#1310
1&
b1000000001000000 $
b1000000001000000 z
b1000 !
b1000 |
b101 "
b101 {
b0 '
b0 x
0(
b1000100001000101 )
b1000100001000101 *
#1320
1(
b1001 !
b1001 |
b110 "
b110 {
1&
b1000100111000110 )
b1000100111000110 *
#1330
b10 '
b10 x
b1010 !
b1010 |
b111 "
b111 {
0(
1&
b1000101001100111 )
b1000101001100111 *
#1340
1(
b1011 !
b1011 |
b1000 "
b1000 {
b10 '
b10 x
1&
b1000101111101000 )
b1000101111101000 *
#1350
b1100 !
b1100 |
b1001 "
b1001 {
b11 '
b11 x
0(
1&
b1000110001111001 )
b1000110001111001 *
#1360
1(
b1101 !
b1101 |
b1010 "
b1010 {
b11 '
b11 x
1&
b1000110111111010 )
b1000110111111010 *
#1370
b0 !
b0 |
b1011 "
b1011 {
b11 '
b11 x
0(
1&
b1000000001111011 )
b1000000001111011 *
#1380
b1110 !
b1110 |
b1100 "
b1100 {
b1 '
b1 x
1&
b1000111001011100 )
b1000111001011100 *
#1390
1(
b1111 !
b1111 |
b1101 "
b1101 {
b1 '
b1 x
1&
b1000111111011101 )
b1000111111011101 *
#1400
b1001000000000000 $
b1001000000000000 z
b100 !
b100 |
b111 "
b111 {
b0 '
b0 x
0(
0&
b1001010000000111 )
b1001010000000111 *
#1410
1(
b101 !
b101 |
b1000 "
b1000 {
b1001010110001000 )
b1001010110001000 *
#1420
b10 '
b10 x
b110 !
b110 |
b1001 "
b1001 {
0(
b1001011000101001 )
b1001011000101001 *
#1430
1(
b111 !
b111 |
b1010 "
b1010 {
b10 '
b10 x
b1001011110101010 )
b1001011110101010 *
#1440
b1000 !
b1000 |
b1011 "
b1011 {
b11 '
b11 x
0(
b1001100000111011 )
b1001100000111011 *
#1450
1(
b1001 !
b1001 |
b1100 "
b1100 {
b11 '
b11 x
b1001100110111100 )
b1001100110111100 *
#1460
b0 !
b0 |
b1101 "
b1101 {
b11 '
b11 x
0(
b1001000000111101 )
b1001000000111101 *
#1470
b1010 !
b1010 |
b1110 "
b1110 {
b1 '
b1 x
b1001101000011110 )
b1001101000011110 *
#1480
1(
b1011 !
b1011 |
b1111 "
b1111 {
b1 '
b1 x
b1001101110011111 )
b1001101110011111 *
#1490
1&
b1001000001000000 $
b1001000001000000 z
b1000 !
b1000 |
b101 "
b101 {
b0 '
b0 x
0(
b1001100001000101 )
b1001100001000101 *
#1500
1(
b1001 !
b1001 |
b110 "
b110 {
1&
b1001100111000110 )
b1001100111000110 *
#1510
b10 '
b10 x
b1010 !
b1010 |
b111 "
b111 {
0(
1&
b1001101001100111 )
b1001101001100111 *
#1520
1(
b1011 !
b1011 |
b1000 "
b1000 {
b10 '
b10 x
1&
b1001101111101000 )
b1001101111101000 *
#1530
b1100 !
b1100 |
b1001 "
b1001 {
b11 '
b11 x
0(
1&
b1001110001111001 )
b1001110001111001 *
#1540
1(
b1101 !
b1101 |
b1010 "
b1010 {
b11 '
b11 x
1&
b1001110111111010 )
b1001110111111010 *
#1550
b0 !
b0 |
b1011 "
b1011 {
b11 '
b11 x
0(
1&
b1001000001111011 )
b1001000001111011 *
#1560
b1110 !
b1110 |
b1100 "
b1100 {
b1 '
b1 x
1&
b1001111001011100 )
b1001111001011100 *
#1570
1(
b1111 !
b1111 |
b1101 "
b1101 {
b1 '
b1 x
1&
b1001111111011101 )
b1001111111011101 *
#1580
b1010000000000000 $
b1010000000000000 z
b100 !
b100 |
b111 "
b111 {
b0 '
b0 x
0(
0&
b1010010000000111 )
b1010010000000111 *
#1590
1(
b101 !
b101 |
b1000 "
b1000 {
b1010010110001000 )
b1010010110001000 *
#1600
b10 '
b10 x
b110 !
b110 |
b1001 "
b1001 {
0(
b1010011000101001 )
b1010011000101001 *
#1610
1(
b111 !
b111 |
b1010 "
b1010 {
b10 '
b10 x
b1010011110101010 )
b1010011110101010 *
#1620
b1000 !
b1000 |
b1011 "
b1011 {
b11 '
b11 x
0(
b1010100000111011 )
b1010100000111011 *
#1630
1(
b1001 !
b1001 |
b1100 "
b1100 {
b11 '
b11 x
b1010100110111100 )
b1010100110111100 *
#1640
b0 !
b0 |
b1101 "
b1101 {
b11 '
b11 x
0(
b1010000000111101 )
b1010000000111101 *
#1650
b1010 !
b1010 |
b1110 "
b1110 {
b1 '
b1 x
b1010101000011110 )
b1010101000011110 *
#1660
1(
b1011 !
b1011 |
b1111 "
b1111 {
b1 '
b1 x
b1010101110011111 )
b1010101110011111 *
#1670
1&
b1010000001000000 $
b1010000001000000 z
b1000 !
b1000 |
b101 "
b101 {
b0 '
b0 x
0(
b1010100001000101 )
b1010100001000101 *
#1680
1(
b1001 !
b1001 |
b110 "
b110 {
1&
b1010100111000110 )
b1010100111000110 *
#1690
b10 '
b10 x
b1010 !
b1010 |
b111 "
b111 {
0(
1&
b1010101001100111 )
b1010101001100111 *
#1700
1(
b1011 !
b1011 |
b1000 "
b1000 {
b10 '
b10 x
1&
b1010101111101000 )
b1010101111101000 *
#1710
b1100 !
b1100 |
b1001 "
b1001 {
b11 '
b11 x
0(
1&
b1010110001111001 )
b1010110001111001 *
#1720
1(
b1101 !
b1101 |
b1010 "
b1010 {
b11 '
b11 x
1&
b1010110111111010 )
b1010110111111010 *
#1730
b0 !
b0 |
b1011 "
b1011 {
b11 '
b11 x
0(
1&
b1010000001111011 )
b1010000001111011 *
#1740
b1110 !
b1110 |
b1100 "
b1100 {
b1 '
b1 x
1&
b1010111001011100 )
b1010111001011100 *
#1750
1(
b1111 !
b1111 |
b1101 "
b1101 {
b1 '
b1 x
1&
b1010111111011101 )
b1010111111011101 *
#1760
b1011000000000000 $
b1011000000000000 z
b100 !
b100 |
b111 "
b111 {
b0 '
b0 x
0(
0&
b1011010000000111 )
b1011010000000111 *
#1770
1(
b101 !
b101 |
b1000 "
b1000 {
b1011010110001000 )
b1011010110001000 *
#1780
b10 '
b10 x
b110 !
b110 |
b1001 "
b1001 {
0(
b1011011000101001 )
b1011011000101001 *
#1790
1(
b111 !
b111 |
b1010 "
b1010 {
b10 '
b10 x
b1011011110101010 )
b1011011110101010 *
#1800
b1000 !
b1000 |
b1011 "
b1011 {
b11 '
b11 x
0(
b1011100000111011 )
b1011100000111011 *
#1810
1(
b1001 !
b1001 |
b1100 "
b1100 {
b11 '
b11 x
b1011100110111100 )
b1011100110111100 *
#1820
b0 !
b0 |
b1101 "
b1101 {
b11 '
b11 x
0(
b1011000000111101 )
b1011000000111101 *
#1830
b1010 !
b1010 |
b1110 "
b1110 {
b1 '
b1 x
b1011101000011110 )
b1011101000011110 *
#1840
1(
b1011 !
b1011 |
b1111 "
b1111 {
b1 '
b1 x
b1011101110011111 )
b1011101110011111 *
#1850
1&
b1011000001000000 $
b1011000001000000 z
b1000 !
b1000 |
b101 "
b101 {
b0 '
b0 x
0(
b1011100001000101 )
b1011100001000101 *
#1860
1(
b1001 !
b1001 |
b110 "
b110 {
1&
b1011100111000110 )
b1011100111000110 *
#1870
b10 '
b10 x
b1010 !
b1010 |
b111 "
b111 {
0(
1&
b1011101001100111 )
b1011101001100111 *
#1880
1(
b1011 !
b1011 |
b1000 "
b1000 {
b10 '
b10 x
1&
b1011101111101000 )
b1011101111101000 *
#1890
b1100 !
b1100 |
b1001 "
b1001 {
b11 '
b11 x
0(
1&
b1011110001111001 )
b1011110001111001 *
#1900
1(
b1101 !
b1101 |
b1010 "
b1010 {
b11 '
b11 x
1&
b1011110111111010 )
b1011110111111010 *
#1910
b0 !
b0 |
b1011 "
b1011 {
b11 '
b11 x
0(
1&
b1011000001111011 )
b1011000001111011 *
#1920
b1110 !
b1110 |
b1100 "
b1100 {
b1 '
b1 x
1&
b1011111001011100 )
b1011111001011100 *
#1930
1(
b1111 !
b1111 |
b1101 "
b1101 {
b1 '
b1 x
1&
b1011111111011101 )
b1011111111011101 *
#1940
b1100000000000000 $
b1100000000000000 z
b100 !
b100 |
b111 "
b111 {
b0 '
b0 x
0(
0&
b1100010000000111 )
b1100010000000111 *
#1950
1(
b101 !
b101 |
b1000 "
b1000 {
b1100010110001000 )
b1100010110001000 *
#1960
b10 '
b10 x
b110 !
b110 |
b1001 "
b1001 {
0(
b1100011000101001 )
b1100011000101001 *
#1970
1(
b111 !
b111 |
b1010 "
b1010 {
b10 '
b10 x
b1100011110101010 )
b1100011110101010 *
#1980
b1000 !
b1000 |
b1011 "
b1011 {
b11 '
b11 x
0(
b1100100000111011 )
b1100100000111011 *
#1990
1(
b1001 !
b1001 |
b1100 "
b1100 {
b11 '
b11 x
b1100100110111100 )
b1100100110111100 *
#2000
b0 !
b0 |
b1101 "
b1101 {
b11 '
b11 x
0(
b1100000000111101 )
b1100000000111101 *
#2010
b1010 !
b1010 |
b1110 "
b1110 {
b1 '
b1 x
b1100101000011110 )
b1100101000011110 *
#2020
1(
b1011 !
b1011 |
b1111 "
b1111 {
b1 '
b1 x
b1100101110011111 )
b1100101110011111 *
#2030
1&
b1100000001000000 $
b1100000001000000 z
b1000 !
b1000 |
b101 "
b101 {
b0 '
b0 x
0(
b1100100001000101 )
b1100100001000101 *
#2040
1(
b1001 !
b1001 |
b110 "
b110 {
1&
b1100100111000110 )
b1100100111000110 *
#2050
b10 '
b10 x
b1010 !
b1010 |
b111 "
b111 {
0(
1&
b1100101001100111 )
b1100101001100111 *
#2060
1(
b1011 !
b1011 |
b1000 "
b1000 {
b10 '
b10 x
1&
b1100101111101000 )
b1100101111101000 *
#2070
b1100 !
b1100 |
b1001 "
b1001 {
b11 '
b11 x
0(
1&
b1100110001111001 )
b1100110001111001 *
#2080
1(
b1101 !
b1101 |
b1010 "
b1010 {
b11 '
b11 x
1&
b1100110111111010 )
b1100110111111010 *
#2090
b0 !
b0 |
b1011 "
b1011 {
b11 '
b11 x
0(
1&
b1100000001111011 )
b1100000001111011 *
#2100
b1110 !
b1110 |
b1100 "
b1100 {
b1 '
b1 x
1&
b1100111001011100 )
b1100111001011100 *
#2110
1(
b1111 !
b1111 |
b1101 "
b1101 {
b1 '
b1 x
1&
b1100111111011101 )
b1100111111011101 *
#2120
b1101000000000000 $
b1101000000000000 z
b100 !
b100 |
b111 "
b111 {
b0 '
b0 x
0(
0&
b1101010000000111 )
b1101010000000111 *
#2130
1(
b101 !
b101 |
b1000 "
b1000 {
b1101010110001000 )
b1101010110001000 *
#2140
b10 '
b10 x
b110 !
b110 |
b1001 "
b1001 {
0(
b1101011000101001 )
b1101011000101001 *
