CPU/FunctionUnit/FunctionUnit.vcd
$date
	Wed Apr 24 11:07:49 2024
$end
$version
	Icarus Verilog
$end
$timescale
	100ns
$end
$scope module FunctionUnit_tb $end
$var wire 16 ! result [15:0] $end
$var wire 1 " diffStatus $end
$var wire 1 # diffResult $end
$var wire 4 $ actualStatus [3:0] $end
$var wire 1 % Zout $end
$var wire 1 & Vout $end
$var wire 1 ' Nout $end
$var wire 1 ( Cout $end
$var parameter 16 ) ADD $end
$var parameter 16 * ADDB $end
$var parameter 16 + ADDC $end
$var parameter 16 , ADDCB $end
$var parameter 16 - AND $end
$var parameter 16 . ANDB $end
$var parameter 16 / BIC $end
$var parameter 16 0 BICB $end
$var parameter 16 1 BIS $end
$var parameter 16 2 BISB $end
$var parameter 16 3 BIT $end
$var parameter 16 4 BITB $end
$var parameter 16 5 CALL $end
$var parameter 16 6 CMP $end
$var parameter 16 7 CMPB $end
$var parameter 16 8 DADD $end
$var parameter 16 9 DADDB $end
$var parameter 16 : JC $end
$var parameter 16 ; JEQ $end
$var parameter 16 < JGE $end
$var parameter 16 = JL $end
$var parameter 16 > JMP $end
$var parameter 16 ? JN $end
$var parameter 16 @ JNC $end
$var parameter 16 A JNE $end
$var parameter 16 B JNZ $end
$var parameter 16 C JZ $end
$var parameter 16 D MOV $end
$var parameter 16 E MOVB $end
$var parameter 16 F PUSH $end
$var parameter 16 G PUSHB $end
$var parameter 16 H RETI $end
$var parameter 16 I RRA $end
$var parameter 16 J RRAB $end
$var parameter 16 K RRC $end
$var parameter 16 L RRCB $end
$var parameter 16 M SUB $end
$var parameter 16 N SUBB $end
$var parameter 16 O SUBC $end
$var parameter 16 P SUBCB $end
$var parameter 16 Q SWPB $end
$var parameter 16 R SXT $end
$var parameter 16 S XOR $end
$var parameter 16 T XORB $end
$var reg 1 U Cin $end
$var reg 16 V Instruction [15:0] $end
$var reg 1 W Nin $end
$var reg 1 X Vin $end
$var reg 1 Y Zin $end
$var reg 16 Z dst [15:0] $end
$var reg 16 [ expectedResult [15:0] $end
$var reg 4 \ expectedStatus [3:0] $end
$var reg 16 ] src [15:0] $end
$scope module uut $end
$var wire 1 U Cin $end
$var wire 16 ^ FS [15:0] $end
$var wire 1 W Nin $end
$var wire 1 X Vin $end
$var wire 1 Y Zin $end
$var wire 16 _ dst [15:0] $end
$var wire 16 ` src [15:0] $end
$var parameter 16 a ADD $end
$var parameter 16 b ADDB $end
$var parameter 16 c ADDC $end
$var parameter 16 d ADDCB $end
$var parameter 16 e AND $end
$var parameter 16 f ANDB $end
$var parameter 16 g BIC $end
$var parameter 16 h BICB $end
$var parameter 16 i BIS $end
$var parameter 16 j BISB $end
$var parameter 16 k BIT $end
$var parameter 16 l BITB $end
$var parameter 16 m CALL $end
$var parameter 16 n CMP $end
$var parameter 16 o CMPB $end
$var parameter 16 p DADD $end
$var parameter 16 q DADDB $end
$var parameter 16 r JC $end
$var parameter 16 s JEQ $end
$var parameter 16 t JGE $end
$var parameter 16 u JL $end
$var parameter 16 v JMP $end
$var parameter 16 w JN $end
$var parameter 16 x JNC $end
$var parameter 16 y JNE $end
$var parameter 16 z JNZ $end
$var parameter 16 { JZ $end
$var parameter 16 | MOV $end
$var parameter 16 } MOVB $end
$var parameter 16 ~ PUSH $end
$var parameter 16 !" PUSHB $end
$var parameter 16 "" RETI $end
$var parameter 16 #" RRA $end
$var parameter 16 $" RRAB $end
$var parameter 16 %" RRC $end
$var parameter 16 &" RRCB $end
$var parameter 16 '" SUB $end
$var parameter 16 (" SUBB $end
$var parameter 16 )" SUBC $end
$var parameter 16 *" SUBCB $end
$var parameter 16 +" SWPB $end
$var parameter 16 ," SXT $end
$var parameter 16 -" XOR $end
$var parameter 16 ." XORB $end
$var reg 1 ( Cout $end
$var reg 1 ' Nout $end
$var reg 1 & Vout $end
$var reg 1 % Zout $end
$var reg 16 /" result [15:0] $end
$upscope $end
$upscope $end
$enddefinitions $end
$comment Show the parameter values. $end
$dumpall
b1110000001000000 ."
b1110000000000000 -"
b1000110000000 ,"
b1000010000000 +"
b111000001000000 *"
b111000000000000 )"
b1000000001000000 ("
b1000000000000000 '"
b1000001000000 &"
b1000000000000 %"
b1000101000000 $"
b1000100000000 #"
b1001100000000 ""
b1001001000000 !"
b1001000000000 ~
b100000001000000 }
b100000000000000 |
b10010000000000 {
b10000000000000 z
b10000000000000 y
b10100000000000 x
b11000000000000 w
b11110000000000 v
b11100000000000 u
b11010000000000 t
b10010000000000 s
b10110000000000 r
b1010000001000000 q
b1010000000000000 p
b1001000001000000 o
b1001000000000000 n
b1001010000000 m
b1011000001000000 l
b1011000000000000 k
b1101000001000000 j
b1101000000000000 i
b1100000001000000 h
b1100000000000000 g
b1111000001000000 f
b1111000000000000 e
b110000001000000 d
b110000000000000 c
b101000001000000 b
b101000000000000 a
b1110000001000000 T
b1110000000000000 S
b1000110000000 R
b1000010000000 Q
b111000001000000 P
b111000000000000 O
b1000000001000000 N
b1000000000000000 M
b1000001000000 L
b1000000000000 K
b1000101000000 J
b1000100000000 I
b1001100000000 H
b1001001000000 G
b1001000000000 F
b100000001000000 E
b100000000000000 D
b10010000000000 C
b10000000000000 B
b10000000000000 A
b10100000000000 @
b11000000000000 ?
b11110000000000 >
b11100000000000 =
b11010000000000 <
b10010000000000 ;
b10110000000000 :
b1010000001000000 9
b1010000000000000 8
b1001000001000000 7
b1001000000000000 6
b1001010000000 5
b1011000001000000 4
b1011000000000000 3
b1101000001000000 2
b1101000000000000 1
b1100000001000000 0
b1100000000000000 /
b1111000001000000 .
b1111000000000000 -
b110000001000000 ,
b110000000000000 +
b101000001000000 *
b101000000000000 )
$end
#0
$dumpvars
b0 /"
b0 `
b0 _
b0 ^
b0 ]
b0 \
b0 [
b0 Z
0Y
0X
0W
b0 V
0U
0(
0'
0&
0%
b0 $
0#
0"
b0 !
$end
#10
b101001011010010 !
b101001011010010 /"
b1 $
1(
b1 \
b101001011010010 [
b1010010110100101 Z
b1010010110100101 _
b1000000000000 V
b1000000000000 ^
#20
b101 $
1'
0"
b1101001011010010 !
b1101001011010010 /"
b101 \
b1101001011010010 [
1U
#30
b100 $
0(
b1000000000000000 !
b1000000000000000 /"
b100 \
b1000000000000000 [
b0 Z
b0 _
1W
#40
0'
b10 $
1%
0"
b0 !
b0 /"
b10 \
b0 [
0U
#50
b1010010 !
b1010010 /"
1(
b1 $
0%
b1 \
b1010010 [
b10100101 Z
b10100101 _
0W
b1000001000000 V
b1000001000000 ^
#60
b101 $
1'
0"
b11010010 !
b11010010 /"
b101 \
b11010010 [
1U
#70
b100 $
0(
b10000000 !
b10000000 /"
b100 \
b10000000 [
b0 Z
b0 _
1W
#80
0'
b10 $
1%
0"
b0 !
b0 /"
b10 \
b0 [
0U
#90
b11010000010010 !
b11010000010010 /"
b0 $
0%
b0 \
b11010000010010 [
b1001000110100 Z
b1001000110100 _
0W
b1000010000000 V
b1000010000000 ^
#100
b11001000100011 !
b11001000100011 /"
b11001000100011 [
b10001100110010 Z
b10001100110010 _
#110
b1000100000000 !
b1000100000000 /"
b1000100000000 [
b10001 Z
b10001 _
#120
b100010 !
b100010 /"
b100010 [
b10001000000000 Z
b10001000000000 _
#130
b10110100101101 !
b10110100101101 /"
b10110100101101 [
b101101001011010 Z
b101101001011010 _
b1000100000000 V
b1000100000000 ^
#140
1'
0"
b101 $
1(
b1101001011010010 !
b1101001011010010 /"
b101 \
b1101001011010010 [
b1010010110100101 Z
b1010010110100101 _
#150
0'
1%
0"
b10 $
0(
b0 !
b0 /"
b10 \
b0 [
b0 Z
b0 _
1W
1U
#160
b11 $
1(
b11 \
b1 Z
b1 _
0W
1Y
0U
#170
b101101 !
b101101 /"
0%
b0 $
0(
b0 \
b101101 [
b1011010 Z
b1011010 _
0Y
b1000101000000 V
b1000101000000 ^
#180
1'
0"
b101 $
1(
b11010010 !
b11010010 /"
b101 \
b11010010 [
b10100101 Z
b10100101 _
#190
0'
1%
0"
b10 $
0(
b0 !
b0 /"
b10 \
b0 [
b0 Z
b0 _
1W
1U
#200
b11 $
1(
b11 \
b1 Z
b1 _
0W
1Y
0U
#210
0"
b1111111 !
b1111111 /"
0%
b1 $
1(
b1 \
b1111111 [
b1111111 Z
b1111111 _
0Y
b1000110000000 V
b1000110000000 ^
#220
b101 $
1'
0"
b1111111110000000 !
b1111111110000000 /"
b101 \
b1111111110000000 [
b10000000 Z
b10000000 _
1U
#230
b1111111111111111 !
b1111111111111111 /"
b1111111111111111 [
b11111111 Z
b11111111 _
1W
#240
0'
0(
b10 $
1%
0"
b0 !
b0 /"
b10 \
b0 [
b0 Z
b0 _
#250
b1001000110100 !
b1001000110100 /"
0#
b0 $
0%
b0 \
b1001000110100 [
b1001000110100 ]
b1001000110100 `
0W
0U
b100000000000000 V
b100000000000000 ^
#260
0#
b101011001111000 !
b101011001111000 /"
b1 $
1(
b1 \
b101011001111000 [
b101011001111000 ]
b101011001111000 `
1U
#270
b0 !
b0 /"
b101 $
1'
b101 \
b0 [
b0 ]
b0 `
1W
#280
b1111111111111111 !
b1111111111111111 /"
0#
b111 $
1%
b111 \
b1111111111111111 [
b1111111111111111 ]
b1111111111111111 `
1Y
#290
0#
b110100 !
b110100 /"
0%
0'
b0 $
0(
b0 \
b110100 [
b1001000110100 ]
b1001000110100 `
0W
0Y
0U
b100000001000000 V
b100000001000000 ^
#300
0#
b1111000 !
b1111000 /"
b1 $
1(
b1 \
b1111000 [
b101011001111000 ]
b101011001111000 `
1U
#310
b0 !
b0 /"
b101 $
1'
b101 \
b0 [
b0 ]
b0 `
1W
#320
b11111111 !
b11111111 /"
0#
b111 $
1%
b111 \
b11111111 [
b1111111111111111 ]
b1111111111111111 `
1Y
#330
1&
0"
b1000000000000000 !
b1000000000000000 /"
0%
1'
b1100 $
0(
b1100 \
b1000000000000000 [
b1 Z
b1 _
b111111111111111 ]
b111111111111111 `
0W
0Y
0U
b101000000000000 V
b101000000000000 ^
#340
0&
0'
0"
b1 $
1(
b111111111111110 !
b111111111111110 /"
b1 \
b111111111111110 [
b1111111111111111 Z
b1111111111111111 _
1X
1W
#350
1&
b1011 $
1%
0"
b0 !
b0 /"
b1011 \
b0 [
b1000000000000000 Z
b1000000000000000 _
b1000000000000000 ]
b1000000000000000 `
0X
0W
1U
#360
b1001 $
0%
0"
b111111111111111 !
b111111111111111 /"
b1001 \
b111111111111111 [
b1111111111111111 Z
b1111111111111111 _
1X
1Y
#370
1'
0"
b10000000 !
b10000000 /"
1&
b1100 $
0(
b1100 \
b10000000 [
b1 Z
b1 _
b1111111 ]
b1111111 `
0X
0Y
0U
b101000001000000 V
b101000001000000 ^
#380
0&
0'
0"
b1 $
1(
b1111110 !
b1111110 /"
b1 \
b1111110 [
b11111111 Z
b11111111 _
1X
1W
#390
1&
b1011 $
1%
0"
b0 !
b0 /"
b1011 \
b0 [
b10000000 Z
b10000000 _
b10000000 ]
b10000000 `
0X
0W
1U
#400
b1001 $
0%
0"
b1111111 !
b1111111 /"
b1001 \
b1111111 [
b11111111 Z
b11111111 _
1X
1Y
#410
1'
0"
0(
b1000000000000001 !
b1000000000000001 /"
b1100 $
1&
b1100 \
b1000000000000001 [
b1 Z
b1 _
b111111111111111 ]
b111111111111111 `
0X
0Y
b110000000000000 V
b110000000000000 ^
#420
0'
0"
b1 !
b1 /"
b1001 $
1(
b1001 \
b1 [
b1000000000000000 Z
b1000000000000000 _
b1000000000000000 ]
b1000000000000000 `
1X
1W
#430
0&
b11 $
1%
0"
b0 !
b0 /"
b11 \
b0 [
b111111111111111 Z
b111111111111111 _
0W
#440
1'
b101 $
0%
0"
b1000000000000000 !
b1000000000000000 /"
b101 \
b1000000000000000 [
b1111111111111111 Z
b1111111111111111 _
0X
1Y
#450
1&
0"
0(
b10000001 !
b10000001 /"
b1100 $
1'
b1100 \
b10000001 [
b1 Z
b1 _
b1111111 ]
b1111111 `
0Y
b110000001000000 V
b110000001000000 ^
#460
0'
0"
b1 !
b1 /"
b1001 $
1(
b1001 \
b1 [
b10000000 Z
b10000000 _
b10000000 ]
b10000000 `
1X
1W
#470
0&
b11 $
1%
0"
b0 !
b0 /"
b11 \
b0 [
b1111111 Z
b1111111 _
0W
#480
1'
b101 $
0%
0"
b10000000 !
b10000000 /"
b101 \
b10000000 [
b11111111 Z
b11111111 _
0X
1Y
#490
1&
0"
0(
b1000000000000000 !
b1000000000000000 /"
b1100 $
1'
b1100 \
b1000000000000000 [
b111111111111111 Z
b111111111111111 _
b1111111111111111 ]
b1111111111111111 `
0Y
b111000000000000 V
b111000000000000 ^
#500
0&
0'
1%
0"
b0 !
b0 /"
b11 $
1(
b11 \
b0 [
b111111111111111 ]
b111111111111111 `
1X
1W
#510
1&
b1001 $
0%
0"
b1 !
b1 /"
b1001 \
b1 [
b1000000000000000 Z
b1000000000000000 _
0X
0W
1Y
#520
1'
0"
0(
b10000000 !
b10000000 /"
b1100 $
1&
b1100 \
b10000000 [
b1111111 Z
b1111111 _
b11111111 ]
b11111111 `
0Y
b111000001000000 V
b111000001000000 ^
#530
0&
0'
1%
0"
b0 !
b0 /"
b11 $
1(
b11 \
b0 [
b1111111 ]
b1111111 `
1X
1W
#540
1&
b1001 $
0%
0"
b1 !
b1 /"
b1001 \
b1 [
b10000000 Z
b10000000 _
0X
0W
1Y
#550
b111111111011111 !
b111111111011111 /"
0&
b1 $
1(
b1 \
b111111111011111 [
b111111111111111 Z
b111111111111111 _
b100000 ]
b100000 `
0Y
0U
b1000000000000000 V
b1000000000000000 ^
#560
1&
1'
0"
b1100 $
0(
b1111111111111111 !
b1111111111111111 /"
b1100 \
b1111111111111111 [
b1000000000000000 ]
b1000000000000000 `
1U
#570
0'
0"
b1001 $
1(
b1 !
b1 /"
b1001 \
b1 [
b1000000000000000 Z
b1000000000000000 _
b111111111111111 ]
b111111111111111 `
1X
1W
0U
#580
0&
b11 $
1%
0"
b0 !
b0 /"
b11 \
b0 [
b1000000000000000 ]
b1000000000000000 `
0W
1U
#590
b1011111 !
b1011111 /"
0%
b1 $
1(
b1 \
b1011111 [
b1111111 Z
b1111111 _
b100000 ]
b100000 `
0X
0U
b1000000001000000 V
b1000000001000000 ^
#600
1&
1'
0"
b1100 $
0(
b11111111 !
b11111111 /"
b1100 \
b11111111 [
b10000000 ]
b10000000 `
1U
#610
0'
0"
b1001 $
1(
b1 !
b1 /"
b1001 \
b1 [
b10000000 Z
b10000000 _
b1111111 ]
b1111111 `
1X
1W
0U
#620
0&
b11 $
1%
0"
b0 !
b0 /"
b11 \
b0 [
b10000000 ]
b10000000 `
0W
1U
#630
x#
b111111111011111 !
b111111111011111 /"
0%
b1 $
1(
b1 \
b111111111111111 [
b111111111111111 Z
b111111111111111 _
b100000 ]
b100000 `
0X
0U
b1001000000000000 V
b1001000000000000 ^
#640
1&
1'
0"
b1100 $
0(
b1111111111111111 !
b1111111111111111 /"
b1100 \
b1000000000000000 ]
b1000000000000000 `
1U
#650
0'
0"
b1001 $
1(
b1 !
b1 /"
b1001 \
b1000000000000000 [
b1000000000000000 Z
b1000000000000000 _
b111111111111111 ]
b111111111111111 `
1X
1W
0U
#660
0&
b11 $
1%
0"
b0 !
b0 /"
b11 \
b1000000000000000 ]
b1000000000000000 `
0W
1U
#670
b1011111 !
b1011111 /"
0%
b1 $
1(
b1 \
b1111111 [
b1111111 Z
b1111111 _
b100000 ]
b100000 `
0X
0U
b1001000001000000 V
b1001000001000000 ^
#680
1&
1'
0"
b1100 $
0(
b11111111 !
b11111111 /"
b1100 \
b10000000 ]
b10000000 `
1U
#690
0'
0"
b1001 $
1(
b1 !
b1 /"
b1001 \
b10000000 [
b10000000 Z
b10000000 _
b1111111 ]
b1111111 `
1X
1W
0U
#700
0&
b11 $
1%
0"
b0 !
b0 /"
b11 \
b10000000 ]
b10000000 `
0W
1U
#710
0#
b101100000000001 !
b101100000000001 /"
0%
b0 $
0(
b0 \
b101100000000001 [
b1001000110100 Z
b1001000110100 _
b100010101100111 ]
b100010101100111 `
0X
0U
b1010000000000000 V
b1010000000000000 ^
#720
1%
b11 $
1(
b0 !
b0 /"
b11 \
b0 [
b1001100110011001 Z
b1001100110011001 _
b1 ]
b1 `
#730
0%
1'
b100 $
0(
b1001100010001001 !
b1001100010001001 /"
b100 \
b1001100010001001 [
b110011001111000 Z
b110011001111000 _
b11001000010000 ]
b11001000010000 `
1Y
1U
#740
b101 $
1(
b1001100110011000 !
b1001100110011000 /"
b101 \
b1001100110011000 [
b1001100110011001 Z
b1001100110011001 _
b1001100110011001 ]
b1001100110011001 `
1W
0Y
0U
#750
b1010111 !
b1010111 /"
0'
b0 $
0(
b0 \
b1010111 [
b10010 Z
b10010 _
b1000101 ]
b1000101 `
0W
b1010000001000000 V
b1010000001000000 ^
#760
1%
0"
b11 $
1(
b0 !
b0 /"
b11 \
b0 [
b10011001 Z
b10011001 _
b1 ]
b1 `
#770
0%
1'
0"
b100 $
0(
b10011001 !
b10011001 /"
b100 \
b10011001 [
b1010110 Z
b1010110 _
b1000010 ]
b1000010 `
1Y
1U
#780
b101 $
1(
b10011000 !
b10011000 /"
b101 \
b10011000 [
b10011001 Z
b10011001 _
b10011001 ]
b10011001 `
1W
0Y
0U
#790
0"
b1000011101100101 !
b1000011101100101 /"
1'
b101 $
1(
b1000011101100101 [
b1111111111111111 Z
b1111111111111111 _
b1000011101100101 ]
b1000011101100101 `
0W
b1111000000000000 V
b1111000000000000 ^
#800
b1 $
0'
0"
b1000000010000 !
b1000000010000 /"
b1 \
b1000000010000 [
b1000100010001 Z
b1000100010001 _
b1001000110100 ]
b1001000110100 `
1W
1U
#810
0(
b10 $
1%
0"
b0 !
b0 /"
b10 \
b0 [
b10010001101000 ]
b10010001101000 `
0W
#820
b0 Z
b0 _
b1111111111111111 ]
b1111111111111111 `
1Y
0U
#830
1(
1'
0"
b10000111 !
b10000111 /"
b101 $
0%
b101 \
b10000111 [
b11111111 Z
b11111111 _
b10000111 ]
b10000111 `
0Y
b1111000001000000 V
b1111000001000000 ^
#840
b1 $
0'
0"
b10000 !
b10000 /"
b1 \
b10000 [
b10001 Z
b10001 _
b10010 ]
b10010 `
1W
1U
#850
0(
b10 $
1%
0"
b0 !
b0 /"
b10 \
b0 [
b100100 ]
b100100 `
0W
#860
b0 Z
b0 _
b11111111 ]
b11111111 `
1Y
0U
#870
b1110110111001011 !
b1110110111001011 /"
b0 $
0%
b0 \
b1110110111001011 [
b1111111111111111 Z
b1111111111111111 _
b1001000110100 ]
b1001000110100 `
0Y
b1100000000000000 V
b1100000000000000 ^
#880
b1000000110000 !
b1000000110000 /"
b1000000110000 [
b1001000110100 Z
b1001000110100 _
b10001101000101 ]
b10001101000101 `
#890
b0 !
b0 /"
b0 [
b1000100010001 Z
b1000100010001 _
b1000100010001 ]
b1000100010001 `
#900
b11001011 !
b11001011 /"
b11001011 [
b11111111 Z
b11111111 _
b110100 ]
b110100 `
b1100000001000000 V
b1100000001000000 ^
#910
b10010 !
b10010 /"
b10010 [
b10010 Z
b10010 _
b1000101 ]
b1000101 `
#920
b0 !
b0 /"
b0 [
b10001 Z
b10001 _
b10001 ]
b10001 `
#930
b1111111111111111 !
b1111111111111111 /"
b1111111111111111 [
b1111111111111111 Z
b1111111111111111 _
b1001000110100 ]
b1001000110100 `
b1101000000000000 V
b1101000000000000 ^
#940
b11001101010101 !
b11001101010101 /"
b11001101010101 [
b1000100010001 Z
b1000100010001 _
b10001101000101 ]
b10001101000101 `
#950
b1000100010001 !
b1000100010001 /"
b1000100010001 [
b1000100010001 ]
b1000100010001 `
#960
b1010010110100101 !
b1010010110100101 /"
b1010010110100101 [
b0 Z
b0 _
b1010010110100101 ]
b1010010110100101 `
#970
b11111111 !
b11111111 /"
b11111111 [
b11111111 Z
b11111111 _
b10010 ]
b10010 `
b1101000001000000 V
b1101000001000000 ^
#980
b110011 !
b110011 /"
b110011 [
b10001 Z
b10001 _
b100011 ]
b100011 `
#990
b10001 !
b10001 /"
b10001 [
b10001 ]
b10001 `
#1000
b10100101 !
b10100101 /"
b10100101 [
b0 Z
b0 _
b10100101 ]
b10100101 `
#1010
1'
b101 $
1(
0"
b1110110111001011 !
b1110110111001011 /"
b101 \
b1110110111001011 [
b1111111111111111 Z
b1111111111111111 _
b1001000110100 ]
b1001000110100 `
b1110000000000000 V
b1110000000000000 ^
#1020
b1111111100000000 !
b1111111100000000 /"
b1111111100000000 [
b1010010110100101 Z
b1010010110100101 _
b101101010100101 ]
b101101010100101 `
1W
1U
#1030
0'
0(
b10 $
1%
0"
b0 !
b0 /"
b10 \
b0 [
b1001000110100 Z
b1001000110100 _
b1001000110100 ]
b1001000110100 `
#1040
1&
1(
b1001 $
0%
0"
b111111111111111 !
b111111111111111 /"
b1001 \
b111111111111111 [
b1111111111111111 Z
b1111111111111111 _
b1000000000000000 ]
b1000000000000000 `
0W
1Y
0U
#1050
1'
0"
b11101101 !
b11101101 /"
0&
b101 $
1(
b101 \
b11101101 [
b11111111 Z
b11111111 _
b10010 ]
b10010 `
0Y
b1110000001000000 V
b1110000001000000 ^
#1060
b11110000 !
b11110000 /"
b11110000 [
b10100101 Z
b10100101 _
b1010101 ]
b1010101 `
1W
1U
#1070
0'
0(
b10 $
1%
0"
b0 !
b0 /"
b10 \
b0 [
b10010 Z
b10010 _
b10010 ]
b10010 `
#1080
1&
1(
b1001 $
0%
0"
b1111111 !
b1111111 /"
b1001 \
b1111111 [
b11111111 Z
b11111111 _
b10000000 ]
b10000000 `
0W
1Y
0U
